\relax 
\providecommand\hyper@newdestlabel[2]{}
\providecommand\HyperFirstAtBeginDocument{\AtBeginDocument}
\HyperFirstAtBeginDocument{\ifx\hyper@anchor\@undefined
\global\let\oldcontentsline\contentsline
\gdef\contentsline#1#2#3#4{\oldcontentsline{#1}{#2}{#3}}
\global\let\oldnewlabel\newlabel
\gdef\newlabel#1#2{\newlabelxx{#1}#2}
\gdef\newlabelxx#1#2#3#4#5#6{\oldnewlabel{#1}{{#2}{#3}}}
\AtEndDocument{\ifx\hyper@anchor\@undefined
\let\contentsline\oldcontentsline
\let\newlabel\oldnewlabel
\fi}
\fi}
\global\let\hyper@last\relax 
\gdef\HyperFirstAtBeginDocument#1{#1}
\providecommand\HyField@AuxAddToFields[1]{}
\providecommand\HyField@AuxAddToCoFields[2]{}
\@writefile{toc}{\contentsline {section}{\numberline {1}Background / Description}{2}{section.1}}
\@writefile{toc}{\contentsline {section}{\numberline {2}Description of Technical Approach}{2}{section.2}}
\@writefile{lof}{\contentsline {figure}{\numberline {1}{\ignorespaces Pipeline Illustration of the Code we will write\relax }}{2}{figure.caption.2}}
\@writefile{toc}{\contentsline {subsection}{\numberline {\textbf  {2.a}}Classifying Algorithms}{3}{subsection.2.1}}
\@writefile{toc}{\contentsline {section}{\numberline {3}Data Sets}{3}{section.3}}
\@writefile{lof}{\contentsline {figure}{\numberline {2}{\ignorespaces Sample of Song Data Collected\relax }}{3}{figure.caption.3}}
\@writefile{toc}{\contentsline {section}{\numberline {4}Software}{5}{section.4}}
\@writefile{toc}{\contentsline {subsection}{\numberline {\textbf  {4.a}}Code Written}{5}{subsection.4.1}}
\@writefile{toc}{\contentsline {subsection}{\numberline {\textbf  {4.b}}Code/Scripts Successfully Used on Data}{5}{subsection.4.2}}
\@writefile{toc}{\contentsline {subsection}{\numberline {\textbf  {4.c}}Software we Plan to Write/Use}{5}{subsection.4.3}}
\@writefile{toc}{\contentsline {section}{\numberline {5}Experiments and Evaluation}{5}{section.5}}
\@writefile{toc}{\contentsline {subsection}{\numberline {\textbf  {5.a}}Completed Experiments}{5}{subsection.5.1}}
\@writefile{toc}{\contentsline {subsection}{\numberline {\textbf  {5.b}}Planned Experiments}{5}{subsection.5.2}}
\@writefile{toc}{\contentsline {section}{\numberline {6}Challenges Identified}{6}{section.6}}
\@writefile{toc}{\contentsline {subsection}{\numberline {\textbf  {6.a}}Data Challenges}{6}{subsection.6.1}}
\@writefile{toc}{\contentsline {subsection}{\numberline {\textbf  {6.b}}Classifier Challenges}{6}{subsection.6.2}}
\@writefile{toc}{\contentsline {section}{\numberline {7}Updated Milestones}{7}{section.7}}
\@writefile{toc}{\contentsline {section}{\numberline {8}Individual Student Accomplishments}{7}{section.8}}
