\relax 
\providecommand\hyper@newdestlabel[2]{}
\providecommand\HyperFirstAtBeginDocument{\AtBeginDocument}
\HyperFirstAtBeginDocument{\ifx\hyper@anchor\@undefined
\global\let\oldcontentsline\contentsline
\gdef\contentsline#1#2#3#4{\oldcontentsline{#1}{#2}{#3}}
\global\let\oldnewlabel\newlabel
\gdef\newlabel#1#2{\newlabelxx{#1}#2}
\gdef\newlabelxx#1#2#3#4#5#6{\oldnewlabel{#1}{{#2}{#3}}}
\AtEndDocument{\ifx\hyper@anchor\@undefined
\let\contentsline\oldcontentsline
\let\newlabel\oldnewlabel
\fi}
\fi}
\global\let\hyper@last\relax 
\gdef\HyperFirstAtBeginDocument#1{#1}
\providecommand\HyField@AuxAddToFields[1]{}
\providecommand\HyField@AuxAddToCoFields[2]{}
\@writefile{toc}{\contentsline {section}{\numberline {1}Background / Description}{2}{section.1}}
\@writefile{toc}{\contentsline {section}{\numberline {2}Related Work}{2}{section.2}}
\@writefile{toc}{\contentsline {section}{\numberline {3}Data Sets}{2}{section.3}}
\@writefile{lof}{\contentsline {figure}{\numberline {1}{\ignorespaces Data Process\relax }}{3}{figure.caption.2}}
\@writefile{lof}{\contentsline {figure}{\numberline {2}{\ignorespaces Genre Mappings and Data\relax }}{4}{figure.caption.3}}
\@writefile{toc}{\contentsline {section}{\numberline {4}Description of Technical Approach}{4}{section.4}}
\@writefile{lof}{\contentsline {figure}{\numberline {3}{\ignorespaces Pipeline Illustration of the Code we will write\relax }}{5}{figure.caption.4}}
\@writefile{toc}{\contentsline {subsection}{\numberline {\textbf  {4.a}}Classifying Algorithms}{5}{subsection.4.1}}
\@writefile{toc}{\contentsline {subsubsection}{\numberline {\textbf  {4.a}.1}Multinomial Naive Bayes}{5}{subsubsection.4.1.1}}
\@writefile{toc}{\contentsline {subsubsection}{\numberline {\textbf  {4.a}.2}K-Nearest Neighbors}{5}{subsubsection.4.1.2}}
\@writefile{toc}{\contentsline {subsubsection}{\numberline {\textbf  {4.a}.3}Decition Trees}{5}{subsubsection.4.1.3}}
\@writefile{toc}{\contentsline {subsubsection}{\numberline {\textbf  {4.a}.4}One vs. Rest (using Linear SVC)}{5}{subsubsection.4.1.4}}
\@writefile{toc}{\contentsline {subsubsection}{\numberline {\textbf  {4.a}.5}Linear SVC}{5}{subsubsection.4.1.5}}
\@writefile{toc}{\contentsline {section}{\numberline {5}Software}{6}{section.5}}
\@writefile{toc}{\contentsline {subsection}{\numberline {\textbf  {5.a}}Code Written}{6}{subsection.5.1}}
\@writefile{toc}{\contentsline {subsubsection}{\numberline {\textbf  {5.a}.1}Data Collection}{6}{subsubsection.5.1.1}}
\@writefile{toc}{\contentsline {subsubsection}{\numberline {\textbf  {5.a}.2}Code/Scripts Successfully Used on Data}{6}{subsubsection.5.1.2}}
\@writefile{toc}{\contentsline {subsection}{\numberline {\textbf  {5.b}}Code From Other Sources}{6}{subsection.5.2}}
\@writefile{toc}{\contentsline {subsubsection}{\numberline {\textbf  {5.b}.1}NLTK}{6}{subsubsection.5.2.1}}
\@writefile{toc}{\contentsline {subsubsection}{\numberline {\textbf  {5.b}.2}scikit-learn}{6}{subsubsection.5.2.2}}
\@writefile{toc}{\contentsline {subsubsection}{\numberline {\textbf  {5.b}.3}matplotlib}{7}{subsubsection.5.2.3}}
\@writefile{toc}{\contentsline {section}{\numberline {6}Experiments and Evaluation}{7}{section.6}}
\@writefile{toc}{\contentsline {subsection}{\numberline {\textbf  {6.a}}Using All Data}{7}{subsection.6.1}}
\@writefile{lof}{\contentsline {figure}{\numberline {4}{\ignorespaces Naive First Run\relax }}{7}{figure.caption.5}}
\@writefile{toc}{\contentsline {subsection}{\numberline {\textbf  {6.b}}Narrowing Down Genres}{7}{subsection.6.2}}
\@writefile{lof}{\contentsline {figure}{\numberline {5}{\ignorespaces Top 25 Histogram\relax }}{7}{figure.caption.6}}
\@writefile{lof}{\contentsline {figure}{\numberline {6}{\ignorespaces Comparing Specific Genres\relax }}{8}{figure.caption.7}}
\@writefile{toc}{\contentsline {subsection}{\numberline {\textbf  {6.c}}Evening Out Genre Fields}{8}{subsection.6.3}}
\@writefile{toc}{\contentsline {subsubsection}{\numberline {\textbf  {6.c}.1}All Genres}{9}{subsubsection.6.3.1}}
\@writefile{lof}{\contentsline {figure}{\numberline {7}{\ignorespaces Even Genre Run\relax }}{9}{figure.caption.8}}
\@writefile{lof}{\contentsline {figure}{\numberline {8}{\ignorespaces Confusion Matrix\relax }}{9}{figure.caption.9}}
\@writefile{toc}{\contentsline {subsubsection}{\numberline {\textbf  {6.c}.2}Pairs of Genres}{9}{subsubsection.6.3.2}}
\@writefile{lof}{\contentsline {figure}{\numberline {9}{\ignorespaces Even Genre Run With Specific Genres\relax }}{10}{figure.caption.10}}
\@writefile{toc}{\contentsline {section}{\numberline {7}Discussion / Conclusion}{10}{section.7}}
