\relax 
\@writefile{toc}{\contentsline {section}{\numberline {1}Project Summary}{2}}
\@writefile{toc}{\contentsline {section}{\numberline {2}Background / Description}{2}}
\@writefile{toc}{\contentsline {section}{\numberline {3}Data Sets}{2}}
\@writefile{lof}{\contentsline {figure}{\numberline {1}{\ignorespaces Last.fm Genre Tag Freq\relax }}{3}}
\@writefile{lof}{\contentsline {figure}{\numberline {2}{\ignorespaces Final Data Set for Project\relax }}{3}}
\@writefile{toc}{\contentsline {section}{\numberline {4}Technical Approach}{3}}
\@writefile{lof}{\contentsline {figure}{\numberline {3}{\ignorespaces Pipeline Illustration of the Code we will write\relax }}{3}}
\@writefile{toc}{\contentsline {subsection}{\numberline {\textbf  {4.a}}Classifying Algorithms}{3}}
\@writefile{toc}{\contentsline {section}{\numberline {5}Experiments and Evaluation}{3}}
\@writefile{toc}{\contentsline {section}{\numberline {6}Software}{4}}
\@writefile{toc}{\contentsline {section}{\numberline {7}Milestones}{4}}
\@writefile{toc}{\contentsline {section}{\numberline {8}Individual Student Responsibilities}{4}}
