\contentsline {section}{\numberline {1}Project Summary}{2}
\contentsline {section}{\numberline {2}Background / Description}{2}
\contentsline {section}{\numberline {3}Data Sets}{2}
\contentsline {section}{\numberline {4}Technical Approach}{3}
\contentsline {subsection}{\numberline {\textbf {4.a}}Classifying Algorithms}{3}
\contentsline {section}{\numberline {5}Experiments and Evaluation}{3}
\contentsline {section}{\numberline {6}Software}{4}
\contentsline {section}{\numberline {7}Milestones}{4}
\contentsline {section}{\numberline {8}Individual Student Responsibilities}{4}
